dealer_cd,ndac_year,ndac_status
23710,2020,Yes
23942,2020,Yes
34245,2020,Yes
34318,2020,Yes
34584,2020,Yes
34601,2020,Yes
34699,2020,Yes
34700,2020,Yes
42045,2020,Yes
42077,2020,Yes
51617,2020,Yes
51653,2020,Yes
61601,2020,Yes
61623,2020,Yes
34699,2021,Yes
41320,2021,Yes
34245,2021,Yes
34700,2021,Yes
34601,2021,Yes
61601,2021,Yes
34575,2021,Yes
10823,2021,Yes
51653,2021,Yes
51479,2021,Yes
51617,2021,Yes
42077,2021,Yes
42156,2021,Yes
42166,2021,Yes
42045,2021,Yes
23999,2021,Yes
23710,2021,Yes
23958,2021,Yes